Query source data domains for a topic — query_src_list • mrgda
…
query_src_list(src_list, .string = "RACE")
#> # A tibble: 5 × 4
#>   DOMAIN COLUMN   MATCH_TYPE VALUE            
#>   <chr>  <chr>    <chr>      <chr>            
#> 1 dm     RACE     column     NA               
#> 2 dm     RACE     label      RACE_LABEL       
#> 3 lb     LBORRES  value      TRACE            
#> 4 lb     LBSTNRC  value      NEGATIVE TO TRACE
#> 5 lb     LBSTRESC value      TRACE            
query_src_list(src_list, .string = "F")
#> # A tibble: 41 × 4
#>    DOMAIN COLUMN   MATCH_TYPE VALUE                   
#>    <chr>  <chr>    <chr>      <chr>                   
#>  1 ae     AEENRF   column     NA                      
#>  2 ae     AEMODIFY column     NA                      
#>  3 ae     AEENRF   label      AEENRF_LABEL            
#>  4 ae     AEMODIFY label      AEMODIFY_LABEL          
#>  5 ae     AEDECOD  value      Fatigue                 
#>  6 ae     AEENRF   value      AFTER                   
#>  7 ae     AETERM   value      LEFT KNEE PAIN WORSENING
#>  8 dm     RFENDTC  column     NA                      
#>  9 dm     RFSTDTC  column     NA                      
#> 10 dm     RFENDTC  label      RFENDTC_LABEL           
#> # ℹ 31 more rows
…
